…
``` r
ipt <- installed.packages() %>%
  as_tibble() %>%
  select(Package, LibPath, Version, Priority, Built)
  
ipt
```

    ## # A tibble: 111 x 5
    ##    Package   LibPath                                Version Priority  Built
    ##    <chr>     <chr>                                  <chr>   <chr>     <chr>
    ##  1 askpass   /Library/Frameworks/R.framework/Versi… 1.1     <NA>      3.6.0
    ##  2 assertth… /Library/Frameworks/R.framework/Versi… 0.2.1   <NA>      3.6.0
    ##  3 backports /Library/Frameworks/R.framework/Versi… 1.1.4   <NA>      3.6.0
    ##  4 base      /Library/Frameworks/R.framework/Versi… 3.6.0   base      3.6.0
    ##  5 base64enc /Library/Frameworks/R.framework/Versi… 0.1-3   <NA>      3.6.0
    ##  6 BH        /Library/Frameworks/R.framework/Versi… 1.69.0… <NA>      3.6.0
    ##  7 boot      /Library/Frameworks/R.framework/Versi… 1.3-22  recommen… 3.6.0
    ##  8 broom     /Library/Frameworks/R.framework/Versi… 0.5.2   <NA>      3.6.0
    ##  9 callr     /Library/Frameworks/R.framework/Versi… 3.2.0   <NA>      3.6.0
    ## 10 cellrang… /Library/Frameworks/R.framework/Versi… 1.1.0   <NA>      3.6.0
    ## # … with 101 more rows
